Archivos/Outs_16_Ports/simulation/qsim/Outs_16_Ports.msim.vcd
$comment
	File created using the following command:
		vcd file Outs_16_Ports.msim.vcd -direction
$end
$date
	Thu Apr 01 17:02:14 2021
$end
$version
	ModelSim Version 10.1d
$end
$timescale
	1ps
$end
$scope module Outs_16_Ports_vlg_vec_tst $end
$var reg 8 ! address [7:0] $end
$var reg 1 " clock $end
$var reg 8 # data_in [7:0] $end
$var reg 1 $ reset $end
$var reg 1 % write $end
$var wire 1 & port_Out_00 [7] $end
$var wire 1 ' port_Out_00 [6] $end
$var wire 1 ( port_Out_00 [5] $end
$var wire 1 ) port_Out_00 [4] $end
$var wire 1 * port_Out_00 [3] $end
$var wire 1 + port_Out_00 [2] $end
$var wire 1 , port_Out_00 [1] $end
$var wire 1 - port_Out_00 [0] $end
$var wire 1 . port_Out_01 [7] $end
$var wire 1 / port_Out_01 [6] $end
$var wire 1 0 port_Out_01 [5] $end
$var wire 1 1 port_Out_01 [4] $end
$var wire 1 2 port_Out_01 [3] $end
$var wire 1 3 port_Out_01 [2] $end
$var wire 1 4 port_Out_01 [1] $end
$var wire 1 5 port_Out_01 [0] $end
$var wire 1 6 port_Out_02 [7] $end
$var wire 1 7 port_Out_02 [6] $end
$var wire 1 8 port_Out_02 [5] $end
$var wire 1 9 port_Out_02 [4] $end
$var wire 1 : port_Out_02 [3] $end
$var wire 1 ; port_Out_02 [2] $end
$var wire 1 < port_Out_02 [1] $end
$var wire 1 = port_Out_02 [0] $end
$var wire 1 > port_Out_03 [7] $end
$var wire 1 ? port_Out_03 [6] $end
$var wire 1 @ port_Out_03 [5] $end
$var wire 1 A port_Out_03 [4] $end
$var wire 1 B port_Out_03 [3] $end
$var wire 1 C port_Out_03 [2] $end
$var wire 1 D port_Out_03 [1] $end
$var wire 1 E port_Out_03 [0] $end
$var wire 1 F port_Out_04 [7] $end
$var wire 1 G port_Out_04 [6] $end
$var wire 1 H port_Out_04 [5] $end
$var wire 1 I port_Out_04 [4] $end
$var wire 1 J port_Out_04 [3] $end
$var wire 1 K port_Out_04 [2] $end
$var wire 1 L port_Out_04 [1] $end
$var wire 1 M port_Out_04 [0] $end
$var wire 1 N port_Out_05 [7] $end
$var wire 1 O port_Out_05 [6] $end
$var wire 1 P port_Out_05 [5] $end
$var wire 1 Q port_Out_05 [4] $end
$var wire 1 R port_Out_05 [3] $end
$var wire 1 S port_Out_05 [2] $end
$var wire 1 T port_Out_05 [1] $end
$var wire 1 U port_Out_05 [0] $end
$var wire 1 V port_Out_06 [7] $end
$var wire 1 W port_Out_06 [6] $end
$var wire 1 X port_Out_06 [5] $end
$var wire 1 Y port_Out_06 [4] $end
$var wire 1 Z port_Out_06 [3] $end
$var wire 1 [ port_Out_06 [2] $end
$var wire 1 \ port_Out_06 [1] $end
$var wire 1 ] port_Out_06 [0] $end
$var wire 1 ^ port_Out_07 [7] $end
$var wire 1 _ port_Out_07 [6] $end
$var wire 1 ` port_Out_07 [5] $end
$var wire 1 a port_Out_07 [4] $end
$var wire 1 b port_Out_07 [3] $end
$var wire 1 c port_Out_07 [2] $end
$var wire 1 d port_Out_07 [1] $end
$var wire 1 e port_Out_07 [0] $end
$var wire 1 f port_Out_08 [7] $end
$var wire 1 g port_Out_08 [6] $end
$var wire 1 h port_Out_08 [5] $end
$var wire 1 i port_Out_08 [4] $end
$var wire 1 j port_Out_08 [3] $end
$var wire 1 k port_Out_08 [2] $end
$var wire 1 l port_Out_08 [1] $end
$var wire 1 m port_Out_08 [0] $end
$var wire 1 n port_Out_09 [7] $end
$var wire 1 o port_Out_09 [6] $end
$var wire 1 p port_Out_09 [5] $end
$var wire 1 q port_Out_09 [4] $end
$var wire 1 r port_Out_09 [3] $end
$var wire 1 s port_Out_09 [2] $end
$var wire 1 t port_Out_09 [1] $end
$var wire 1 u port_Out_09 [0] $end
$var wire 1 v port_Out_10 [7] $end
$var wire 1 w port_Out_10 [6] $end
$var wire 1 x port_Out_10 [5] $end
$var wire 1 y port_Out_10 [4] $end
$var wire 1 z port_Out_10 [3] $end
$var wire 1 { port_Out_10 [2] $end
$var wire 1 | port_Out_10 [1] $end
$var wire 1 } port_Out_10 [0] $end
$var wire 1 ~ port_Out_11 [7] $end
$var wire 1 !! port_Out_11 [6] $end
$var wire 1 "! port_Out_11 [5] $end
$var wire 1 #! port_Out_11 [4] $end
$var wire 1 $! port_Out_11 [3] $end
$var wire 1 %! port_Out_11 [2] $end
$var wire 1 &! port_Out_11 [1] $end
$var wire 1 '! port_Out_11 [0] $end
$var wire 1 (! port_Out_12 [7] $end
$var wire 1 )! port_Out_12 [6] $end
$var wire 1 *! port_Out_12 [5] $end
$var wire 1 +! port_Out_12 [4] $end
$var wire 1 ,! port_Out_12 [3] $end
$var wire 1 -! port_Out_12 [2] $end
$var wire 1 .! port_Out_12 [1] $end
$var wire 1 /! port_Out_12 [0] $end
$var wire 1 0! port_Out_13 [7] $end
$var wire 1 1! port_Out_13 [6] $end
$var wire 1 2! port_Out_13 [5] $end
$var wire 1 3! port_Out_13 [4] $end
$var wire 1 4! port_Out_13 [3] $end
$var wire 1 5! port_Out_13 [2] $end
$var wire 1 6! port_Out_13 [1] $end
$var wire 1 7! port_Out_13 [0] $end
$var wire 1 8! port_Out_14 [7] $end
$var wire 1 9! port_Out_14 [6] $end
$var wire 1 :! port_Out_14 [5] $end
$var wire 1 ;! port_Out_14 [4] $end
$var wire 1 <! port_Out_14 [3] $end
$var wire 1 =! port_Out_14 [2] $end
$var wire 1 >! port_Out_14 [1] $end
$var wire 1 ?! port_Out_14 [0] $end
$var wire 1 @! port_Out_15 [7] $end
$var wire 1 A! port_Out_15 [6] $end
$var wire 1 B! port_Out_15 [5] $end
$var wire 1 C! port_Out_15 [4] $end
$var wire 1 D! port_Out_15 [3] $end
$var wire 1 E! port_Out_15 [2] $end
$var wire 1 F! port_Out_15 [1] $end
$var wire 1 G! port_Out_15 [0] $end
$var wire 1 H! sampler $end
$scope module i1 $end
$var wire 1 I! gnd $end
$var wire 1 J! vcc $end
$var wire 1 K! unknown $end
$var tri1 1 L! devclrn $end
$var tri1 1 M! devpor $end
$var tri1 1 N! devoe $end
$var wire 1 O! U2~2_combout $end
$var wire 1 P! U0~3_combout $end
$var wire 1 Q! clock~combout $end
$var wire 1 R! clock~clkctrl_outclk $end
$var wire 1 S! port_Out_00[0]~reg0feeder_combout $end
$var wire 1 T! reset~combout $end
$var wire 1 U! reset~clkctrl_outclk $end
$var wire 1 V! U0~1_combout $end
$var wire 1 W! write~combout $end
$var wire 1 X! U0~0_combout $end
$var wire 1 Y! U1~0_combout $end
$var wire 1 Z! U0~2_combout $end
$var wire 1 [! port_Out_00[0]~reg0_regout $end
$var wire 1 \! port_Out_00[1]~reg0_regout $end
$var wire 1 ]! port_Out_00[2]~reg0_regout $end
$var wire 1 ^! port_Out_00[3]~reg0feeder_combout $end
$var wire 1 _! port_Out_00[3]~reg0_regout $end
$var wire 1 `! port_Out_00[4]~reg0_regout $end
$var wire 1 a! port_Out_00[5]~reg0_regout $end
$var wire 1 b! port_Out_00[6]~reg0_regout $end
$var wire 1 c! port_Out_00[7]~reg0feeder_combout $end
$var wire 1 d! port_Out_00[7]~reg0_regout $end
$var wire 1 e! U1~1_combout $end
$var wire 1 f! port_Out_01[0]~reg0_regout $end
$var wire 1 g! port_Out_01[1]~reg0_regout $end
$var wire 1 h! port_Out_01[2]~reg0_regout $end
$var wire 1 i! port_Out_01[3]~reg0_regout $end
$var wire 1 j! port_Out_01[4]~reg0feeder_combout $end
$var wire 1 k! port_Out_01[4]~reg0_regout $end
$var wire 1 l! port_Out_01[5]~reg0feeder_combout $end
$var wire 1 m! port_Out_01[5]~reg0_regout $end
$var wire 1 n! port_Out_01[6]~reg0feeder_combout $end
$var wire 1 o! port_Out_01[6]~reg0_regout $end
$var wire 1 p! port_Out_01[7]~reg0feeder_combout $end
$var wire 1 q! port_Out_01[7]~reg0_regout $end
$var wire 1 r! U2~0_combout $end
$var wire 1 s! U2~1_combout $end
$var wire 1 t! port_Out_02[0]~reg0_regout $end
$var wire 1 u! port_Out_02[1]~reg0_regout $end
$var wire 1 v! port_Out_02[2]~reg0_regout $end
$var wire 1 w! port_Out_02[3]~reg0_regout $end
$var wire 1 x! port_Out_02[4]~reg0feeder_combout $end
$var wire 1 y! port_Out_02[4]~reg0_regout $end
$var wire 1 z! port_Out_02[5]~reg0feeder_combout $end
$var wire 1 {! port_Out_02[5]~reg0_regout $end
$var wire 1 |! port_Out_02[6]~reg0feeder_combout $end
$var wire 1 }! port_Out_02[6]~reg0_regout $end
$var wire 1 ~! port_Out_02[7]~reg0feeder_combout $end
$var wire 1 !" port_Out_02[7]~reg0_regout $end
$var wire 1 "" port_Out_03[0]~reg0feeder_combout $end
$var wire 1 #" U3~0_combout $end
$var wire 1 $" port_Out_03[0]~reg0_regout $end
$var wire 1 %" port_Out_03[1]~reg0_regout $end
$var wire 1 &" port_Out_03[2]~reg0_regout $end
$var wire 1 '" port_Out_03[3]~reg0feeder_combout $end
$var wire 1 (" port_Out_03[3]~reg0_regout $end
$var wire 1 )" port_Out_03[4]~reg0_regout $end
$var wire 1 *" port_Out_03[5]~reg0_regout $end
$var wire 1 +" port_Out_03[6]~reg0_regout $end
$var wire 1 ," port_Out_03[7]~reg0feeder_combout $end
$var wire 1 -" port_Out_03[7]~reg0_regout $end
$var wire 1 ." port_Out_04[0]~reg0feeder_combout $end
$var wire 1 /" U4~0_combout $end
$var wire 1 0" port_Out_04[0]~reg0_regout $end
$var wire 1 1" port_Out_04[1]~reg0_regout $end
$var wire 1 2" port_Out_04[2]~reg0feeder_combout $end
$var wire 1 3" port_Out_04[2]~reg0_regout $end
$var wire 1 4" port_Out_04[3]~reg0feeder_combout $end
$var wire 1 5" port_Out_04[3]~reg0_regout $end
$var wire 1 6" port_Out_04[4]~reg0feeder_combout $end
$var wire 1 7" port_Out_04[4]~reg0_regout $end
$var wire 1 8" port_Out_04[5]~reg0_regout $end
$var wire 1 9" port_Out_04[6]~reg0_regout $end
$var wire 1 :" port_Out_04[7]~reg0_regout $end
$var wire 1 ;" port_Out_05[0]~reg0feeder_combout $end
$var wire 1 <" U1~2_combout $end
$var wire 1 =" U5~0_combout $end
$var wire 1 >" port_Out_05[0]~reg0_regout $end
$var wire 1 ?" port_Out_05[1]~reg0feeder_combout $end
$var wire 1 @" port_Out_05[1]~reg0_regout $end
$var wire 1 A" port_Out_05[2]~reg0feeder_combout $end
$var wire 1 B" port_Out_05[2]~reg0_regout $end
$var wire 1 C" port_Out_05[3]~reg0_regout $end
$var wire 1 D" port_Out_05[4]~reg0_regout $end
$var wire 1 E" port_Out_05[5]~reg0feeder_combout $end
$var wire 1 F" port_Out_05[5]~reg0_regout $end
$var wire 1 G" port_Out_05[6]~reg0_regout $end
$var wire 1 H" port_Out_05[7]~reg0feeder_combout $end
$var wire 1 I" port_Out_05[7]~reg0_regout $end
$var wire 1 J" port_Out_06[0]~reg0feeder_combout $end
$var wire 1 K" U2~3_combout $end
$var wire 1 L" U6~0_combout $end
$var wire 1 M" port_Out_06[0]~reg0_regout $end
$var wire 1 N" port_Out_06[1]~reg0_regout $end
$var wire 1 O" port_Out_06[2]~reg0_regout $end
$var wire 1 P" port_Out_06[3]~reg0feeder_combout $end
$var wire 1 Q" port_Out_06[3]~reg0_regout $end
$var wire 1 R" port_Out_06[4]~reg0feeder_combout $end
$var wire 1 S" port_Out_06[4]~reg0_regout $end
$var wire 1 T" port_Out_06[5]~reg0_regout $end
$var wire 1 U" port_Out_06[6]~reg0feeder_combout $end
$var wire 1 V" port_Out_06[6]~reg0_regout $end
$var wire 1 W" port_Out_06[7]~reg0_regout $end
$var wire 1 X" port_Out_07[0]~reg0feeder_combout $end
$var wire 1 Y" U7~0_combout $end
$var wire 1 Z" port_Out_07[0]~reg0_regout $end
$var wire 1 [" port_Out_07[1]~reg0_regout $end
$var wire 1 \" port_Out_07[2]~reg0feeder_combout $end
$var wire 1 ]" port_Out_07[2]~reg0_regout $end
$var wire 1 ^" port_Out_07[3]~reg0feeder_combout $end
$var wire 1 _" port_Out_07[3]~reg0_regout $end
$var wire 1 `" port_Out_07[4]~reg0feeder_combout $end
$var wire 1 a" port_Out_07[4]~reg0_regout $end
$var wire 1 b" port_Out_07[5]~reg0_regout $end
$var wire 1 c" port_Out_07[6]~reg0_regout $end
$var wire 1 d" port_Out_07[7]~reg0_regout $end
$var wire 1 e" port_Out_08[0]~reg0feeder_combout $end
$var wire 1 f" U8~0_combout $end
$var wire 1 g" U8~1_combout $end
$var wire 1 h" port_Out_08[0]~reg0_regout $end
$var wire 1 i" port_Out_08[1]~reg0feeder_combout $end
$var wire 1 j" port_Out_08[1]~reg0_regout $end
$var wire 1 k" port_Out_08[2]~reg0feeder_combout $end
$var wire 1 l" port_Out_08[2]~reg0_regout $end
$var wire 1 m" port_Out_08[3]~reg0feeder_combout $end
$var wire 1 n" port_Out_08[3]~reg0_regout $end
$var wire 1 o" port_Out_08[4]~reg0feeder_combout $end
$var wire 1 p" port_Out_08[4]~reg0_regout $end
$var wire 1 q" port_Out_08[5]~reg0feeder_combout $end
$var wire 1 r" port_Out_08[5]~reg0_regout $end
$var wire 1 s" port_Out_08[6]~reg0_regout $end
$var wire 1 t" port_Out_08[7]~reg0feeder_combout $end
$var wire 1 u" port_Out_08[7]~reg0_regout $end
$var wire 1 v" U9~0_combout $end
$var wire 1 w" port_Out_09[0]~reg0_regout $end
$var wire 1 x" port_Out_09[1]~reg0feeder_combout $end
$var wire 1 y" port_Out_09[1]~reg0_regout $end
$var wire 1 z" port_Out_09[2]~reg0feeder_combout $end
$var wire 1 {" port_Out_09[2]~reg0_regout $end
$var wire 1 |" port_Out_09[3]~reg0feeder_combout $end
$var wire 1 }" port_Out_09[3]~reg0_regout $end
$var wire 1 ~" port_Out_09[4]~reg0feeder_combout $end
$var wire 1 !# port_Out_09[4]~reg0_regout $end
$var wire 1 "# port_Out_09[5]~reg0feeder_combout $end
$var wire 1 ## port_Out_09[5]~reg0_regout $end
$var wire 1 $# port_Out_09[6]~reg0_regout $end
$var wire 1 %# port_Out_09[7]~reg0feeder_combout $end
$var wire 1 &# port_Out_09[7]~reg0_regout $end
$var wire 1 '# port_Out_10[0]~reg0feeder_combout $end
$var wire 1 (# U10~0_combout $end
$var wire 1 )# port_Out_10[0]~reg0_regout $end
$var wire 1 *# port_Out_10[1]~reg0feeder_combout $end
$var wire 1 +# port_Out_10[1]~reg0_regout $end
$var wire 1 ,# port_Out_10[2]~reg0feeder_combout $end
$var wire 1 -# port_Out_10[2]~reg0_regout $end
$var wire 1 .# port_Out_10[3]~reg0feeder_combout $end
$var wire 1 /# port_Out_10[3]~reg0_regout $end
$var wire 1 0# port_Out_10[4]~reg0_regout $end
$var wire 1 1# port_Out_10[5]~reg0_regout $end
$var wire 1 2# port_Out_10[6]~reg0feeder_combout $end
$var wire 1 3# port_Out_10[6]~reg0_regout $end
$var wire 1 4# port_Out_10[7]~reg0feeder_combout $end
$var wire 1 5# port_Out_10[7]~reg0_regout $end
$var wire 1 6# port_Out_11[0]~reg0feeder_combout $end
$var wire 1 7# U11~0_combout $end
$var wire 1 8# port_Out_11[0]~reg0_regout $end
$var wire 1 9# port_Out_11[1]~reg0feeder_combout $end
$var wire 1 :# port_Out_11[1]~reg0_regout $end
$var wire 1 ;# port_Out_11[2]~reg0feeder_combout $end
$var wire 1 <# port_Out_11[2]~reg0_regout $end
$var wire 1 =# port_Out_11[3]~reg0_regout $end
$var wire 1 ># port_Out_11[4]~reg0feeder_combout $end
$var wire 1 ?# port_Out_11[4]~reg0_regout $end
$var wire 1 @# port_Out_11[5]~reg0feeder_combout $end
$var wire 1 A# port_Out_11[5]~reg0_regout $end
$var wire 1 B# port_Out_11[6]~reg0_regout $end
$var wire 1 C# port_Out_11[7]~reg0feeder_combout $end
$var wire 1 D# port_Out_11[7]~reg0_regout $end
$var wire 1 E# port_Out_12[0]~reg0feeder_combout $end
$var wire 1 F# U12~0_combout $end
$var wire 1 G# port_Out_12[0]~reg0_regout $end
$var wire 1 H# port_Out_12[1]~reg0feeder_combout $end
$var wire 1 I# port_Out_12[1]~reg0_regout $end
$var wire 1 J# port_Out_12[2]~reg0feeder_combout $end
$var wire 1 K# port_Out_12[2]~reg0_regout $end
$var wire 1 L# port_Out_12[3]~reg0feeder_combout $end
$var wire 1 M# port_Out_12[3]~reg0_regout $end
$var wire 1 N# port_Out_12[4]~reg0_regout $end
$var wire 1 O# port_Out_12[5]~reg0_regout $end
$var wire 1 P# port_Out_12[6]~reg0feeder_combout $end
$var wire 1 Q# port_Out_12[6]~reg0_regout $end
$var wire 1 R# port_Out_12[7]~reg0feeder_combout $end
$var wire 1 S# port_Out_12[7]~reg0_regout $end
$var wire 1 T# U13~0_combout $end
$var wire 1 U# port_Out_13[0]~reg0_regout $end
$var wire 1 V# port_Out_13[1]~reg0_regout $end
$var wire 1 W# port_Out_13[2]~reg0feeder_combout $end
$var wire 1 X# port_Out_13[2]~reg0_regout $end
$var wire 1 Y# port_Out_13[3]~reg0feeder_combout $end
$var wire 1 Z# port_Out_13[3]~reg0_regout $end
$var wire 1 [# port_Out_13[4]~reg0_regout $end
$var wire 1 \# port_Out_13[5]~reg0_regout $end
$var wire 1 ]# port_Out_13[6]~reg0_regout $end
$var wire 1 ^# port_Out_13[7]~reg0_regout $end
$var wire 1 _# port_Out_14[0]~reg0feeder_combout $end
$var wire 1 `# U14~0_combout $end
$var wire 1 a# port_Out_14[0]~reg0_regout $end
$var wire 1 b# port_Out_14[1]~reg0_regout $end
$var wire 1 c# port_Out_14[2]~reg0_regout $end
$var wire 1 d# port_Out_14[3]~reg0feeder_combout $end
$var wire 1 e# port_Out_14[3]~reg0_regout $end
$var wire 1 f# port_Out_14[4]~reg0feeder_combout $end
$var wire 1 g# port_Out_14[4]~reg0_regout $end
$var wire 1 h# port_Out_14[5]~reg0_regout $end
$var wire 1 i# port_Out_14[6]~reg0feeder_combout $end
$var wire 1 j# port_Out_14[6]~reg0_regout $end
$var wire 1 k# port_Out_14[7]~reg0_regout $end
$var wire 1 l# port_Out_15[0]~reg0feeder_combout $end
$var wire 1 m# U15~0_combout $end
$var wire 1 n# port_Out_15[0]~reg0_regout $end
$var wire 1 o# port_Out_15[1]~reg0_regout $end
$var wire 1 p# port_Out_15[2]~reg0_regout $end
$var wire 1 q# port_Out_15[3]~reg0_regout $end
$var wire 1 r# port_Out_15[4]~reg0_regout $end
$var wire 1 s# port_Out_15[5]~reg0feeder_combout $end
$var wire 1 t# port_Out_15[5]~reg0_regout $end
$var wire 1 u# port_Out_15[6]~reg0feeder_combout $end
$var wire 1 v# port_Out_15[6]~reg0_regout $end
$var wire 1 w# port_Out_15[7]~reg0feeder_combout $end
$var wire 1 x# port_Out_15[7]~reg0_regout $end
$var wire 1 y# data_in~combout [7] $end
$var wire 1 z# data_in~combout [6] $end
$var wire 1 {# data_in~combout [5] $end
$var wire 1 |# data_in~combout [4] $end
$var wire 1 }# data_in~combout [3] $end
$var wire 1 ~# data_in~combout [2] $end
$var wire 1 !$ data_in~combout [1] $end
$var wire 1 "$ data_in~combout [0] $end
$var wire 1 #$ address~combout [7] $end
$var wire 1 $$ address~combout [6] $end
$var wire 1 %$ address~combout [5] $end
$var wire 1 &$ address~combout [4] $end
$var wire 1 '$ address~combout [3] $end
$var wire 1 ($ address~combout [2] $end
$var wire 1 )$ address~combout [1] $end
$var wire 1 *$ address~combout [0] $end
$upscope $end
$upscope $end
$enddefinitions $end
#0
$dumpvars
b110 !
0"
b111 #
1$
0%
0-
0,
0+
0*
0)
0(
0'
0&
05
04
03
02
01
00
0/
0.
0=
0<
0;
0:
09
08
07
06
0E
0D
0C
0B
0A
0@
0?
0>
0M
0L
0K
0J
0I
0H
0G
0F
0U
0T
0S
0R
0Q
0P
0O
0N
0]
0\
0[
0Z
0Y
0X
0W
0V
0e
0d
0c
0b
0a
0`
0_
0^
0m
0l
0k
0j
0i
0h
0g
0f
0u
0t
0s
0r
0q
0p
0o
0n
0}
0|
0{
0z
0y
0x
0w
0v
0'!
0&!
0%!
0$!
0#!
0"!
0!!
0~
0/!
0.!
0-!
0,!
0+!
0*!
0)!
0(!
07!
06!
05!
04!
03!
02!
01!
00!
0?!
0>!
0=!
0<!
0;!
0:!
09!
08!
0G!
0F!
0E!
0D!
0C!
0B!
0A!
0@!
xH!
0I!
1J!
xK!
1L!
1M!
1N!
0O!
0P!
0Q!
0R!
1S!
1T!
1U!
0V!
0W!
0X!
0Y!
0Z!
0[!
0\!
0]!
0^!
0_!
0`!
0a!
0b!
0c!
0d!
0e!
0f!
0g!
0h!
0i!
0j!
0k!
0l!
0m!
0n!
0o!
0p!
0q!
0r!
0s!
0t!
0u!
0v!
0w!
0x!
0y!
0z!
0{!
0|!
0}!
0~!
0!"
1""
0#"
0$"
0%"
0&"
0'"
0("
0)"
0*"
0+"
0,"
0-"
1."
0/"
00"
01"
12"
03"
04"
05"
06"
07"
08"
09"
0:"
1;"
0<"
0="
0>"
1?"
0@"
1A"
0B"
0C"
0D"
0E"
0F"
0G"
0H"
0I"
1J"
0K"
0L"
0M"
0N"
0O"
0P"
0Q"
0R"
0S"
0T"
0U"
0V"
0W"
1X"
0Y"
0Z"
0["
1\"
0]"
0^"
0_"
0`"
0a"
0b"
0c"
0d"
1e"
0f"
0g"
0h"
1i"
0j"
1k"
0l"
0m"
0n"
0o"
0p"
0q"
0r"
0s"
0t"
0u"
0v"
0w"
1x"
0y"
1z"
0{"
0|"
0}"
0~"
0!#
0"#
0##
0$#
0%#
0&#
1'#
0(#
0)#
1*#
0+#
1,#
0-#
0.#
0/#
00#
01#
02#
03#
04#
05#
16#
07#
08#
19#
0:#
1;#
0<#
0=#
0>#
0?#
0@#
0A#
0B#
0C#
0D#
1E#
0F#
0G#
1H#
0I#
1J#
0K#
0L#
0M#
0N#
0O#
0P#
0Q#
0R#
0S#
0T#
0U#
0V#
1W#
0X#
0Y#
0Z#
0[#
0\#
0]#
0^#
1_#
0`#
0a#
0b#
0c#
0d#
0e#
0f#
0g#
0h#
0i#
0j#
0k#
1l#
0m#
0n#
0o#
0p#
0q#
0r#
0s#
0t#
0u#
0v#
0w#
0x#
1"$
1!$
1~#
0}#
0|#
0{#
0z#
0y#
0*$
1)$
1($
0'$
0&$
0%$
0$$
0#$
$end
#50000
1%
1W!
0H!
#100000
0%
0W!
1H!
#125000
b10000110 !
b11000110 !
b11100110 !
b11110110 !
b11110100 !
b11110101 !
1"
1*$
0)$
1&$
1%$
1$$
1#$
1Q!
1R!
0H!
1V!
#150000
1%
1W!
1H!
#200000
0%
0W!
0H!
#250000
b10000111 #
b10100111 #
b10101111 #
b10101011 #
b10101001 #
b10101000 #
b1110101 !
b1010101 !
b1010100 !
0"
1%
0*$
0%$
0#$
0"$
0!$
0~#
1}#
1{#
1y#
0Q!
1W!
0R!
1H!
0l#
0_#
0E#
06#
0'#
0e"
0X"
0J"
0;"
0."
0""
0S!
0H#
09#
0*#
0x"
0i"
0?"
0W#
0J#
0;#
0,#
0z"
0k"
0\"
0A"
02"
1d#
1Y#
1L#
1.#
1|"
1m"
1^"
1P"
14"
1'"
1^!
1s#
1@#
1"#
1q"
1E"
1z!
1l!
1w#
1R#
1C#
14#
1%#
1t"
1H"
1,"
1~!
1p!
1c!
#300000
0%
0W!
0H!
#350000
1%
1W!
1H!
#375000
b1011100 !
b1011110 !
b11011110 !
b11111110 !
b11111111 !
1"
1*$
1)$
1'$
1%$
1#$
1Q!
1R!
0H!
0V!
#400000
0%
0W!
1H!
#450000
1%
1W!
0H!
#500000
b11111011 !
b10111011 !
b101000 #
b1000 #
b0 #
b10111001 !
b111001 !
b11001 !
0"
0%
0}#
0{#
0y#
0)$
0($
0%$
0$$
0#$
0Q!
0W!
0R!
1H!
0d#
0Y#
0L#
0.#
0|"
0m"
0^"
0P"
04"
0'"
0^!
0s#
0@#
0"#
0q"
0E"
0z!
0l!
0w#
0R#
0C#
04#
0%#
0t"
0H"
0,"
0~!
0p!
0c!
#550000
1%
1W!
0H!
